{
  "type": "service_account",
  "project_id": "talentview-211113",
  "private_key_id": "41e43c723e1ace44cad3f53c38d1da4642da7f5a",
  "private_key": "-----BEGIN PRIVATE KEY-----\nMIIEvQIBADANBgkqhkiG9w0BAQEFAASCBKcwggSjAgEAAoIBAQDWqSiWX6D5dOOz\nG4ktWwlxDFZDrnK82bEh5/f0GqSUEg774c6Ot3vsC/hnLo9k3i8wbw4gcATuc82i\nhw3pYcpjV8RpJzP8VyhpAyQNBJswKiAE5Y21gO5YNQsQl18XNwB90ysVj5XBF/e4\nNF9H4p9g8GAPFHKBC3XrZWz7xEE4qveQnPxwE3OQ7gv9VbejigHyK0JoOXRmA84O\nA5U6AuQX/0evI0DeqXaMIdTXE0v81xe1829K0OguAgvnn4KK5izeIrqYGSqZ7hyz\nnNaWi1xIEfuolUv95dUbt+F0rCWb68URpr+FtBASqg1IUDmMA+cQlksiMR9DocWK\nw4Ri9UcRAgMBAAECggEACTeONJa6lLt+I2ylQTtNdnsvIQzWhGFch7YsIWEbe/gi\niJIzilE6kvIYomWPZqdbo1rBYocszwhN5hKieEjopcdY+aLjSox7gbbOz3hJKZJF\nebBZm1eD5Gmype25+Yc1EDIHAY/+wCHFUzV8eduzODhaB4u7NutFDux194F/w20P\nvo8/26fmzgcJD/afjkXJ3Q5t6W3ODep8c0Eo+01pB47iZYgh+KKfvLKTCgniofSW\nElhny/Pp7Eyb/Z43jd9487AfNKCYxXdiYbFteZszEEDXIO/vQlcX6lD3CIRrvU3n\nsmheb6DEbTSkfz7O15RfPJN6tU+IVQjlWq0H9V8EIQKBgQDrkh5YSaYjq6bYcle9\nEmKppGc0ASYEk4inmkiWE4sjj4fIPirxnD5GopD/jiBCf1PvHMNOr7Jn4V6v5DpO\nhVR95rzg3A1uBffPrMGDKOu9+6psc7ximc6Q98olSVmanKzda1aJtTqjbNIMiDlq\n7pGBNjpYrdm8QgtbnjkNPqpNdQKBgQDpRtHA0MBrjt4eWJ8LxUAT0I80FCI4t6+E\nit+L73voHAiyKrCq5B2kyMlxVw6hy3T21410FlLpzzpZcgAdolB4o/fffRwqpoGv\nuekMMVZqIRwbghQG12nY2FckSk2bZbbmKmax5xu3bkCmVSrQN6C4Xu8GlCkFzCpN\nNxqxJXpTrQKBgQDizrWOtaJTd8JVZYnaTahWwyZmaLCs+Us6a451iG2PmHLYNhrs\ns002fvDyTGn8/FDYyK22xe0UnWWoHiqRTUfzTEQQj24Sv4ZAGonaeXy4V2VXs/ru\nSD4dT6X+TmgKN80sBlu0jJvfmzeFv2bg8L+BU6/Lj98ypbf/xxARE4OuvQKBgDyq\n4loW8DQIz9NskNBq2CNPFi8hHVVK0CbURxcJjVvsDobne1K2SM9WOK11SqThWOXp\nYSxTsfSEpFQmxcjvMaZuXkSNMQoWi5u76dP18NdhDQJKbhLpaumuOduCR3Smm054\nsISL6jVmQwH/HEdScEYCyn8XgSO02TuDnTl82bdxAoGALqVQwWroSn7u8fbKhQce\nnyBUhX+19YbbUToK3mDaypFV41cnVwkM45WstkIT0njHTycDYRscw9pFoZofJdcU\nOgkKa5h9Cbz/vnMwHrWXmbrqqZK72t9zXosV7//GW8WeaRBP8P2uoj21VqIZQCPB\n7t6SvKhBTyxOywW4+cBJEs8=\n-----END PRIVATE KEY-----\n",
  "client_email": "super-spread@talentview-211113.iam.gserviceaccount.com",
  "client_id": "108590139037330366331",
  "auth_uri": "https://accounts.google.com/o/oauth2/auth",
  "token_uri": "https://accounts.google.com/o/oauth2/token",
  "auth_provider_x509_cert_url": "https://www.googleapis.com/oauth2/v1/certs",
  "client_x509_cert_url": "https://www.googleapis.com/robot/v1/metadata/x509/super-spread%40talentview-211113.iam.gserviceaccount.com"
}
